<svg version="1.1" id="Слой_1" xmlns="http://www.w3.org/2000/svg" xmlns:xlink="http://www.w3.org/1999/xlink" x="0px" y="0px" viewBox="0 0 512 511.997" enable-background="new 0 0 512 511.997" xml:space="preserve">
	<path fill="#000" d="M375.733,330.481c25.194-34.406,40.265-76.667,40.265-122.482
		C415.998,93.312,322.686,0,207.999,0S0,93.312,0,207.999c0,114.688,93.313,208,208,208c45.814,0,88.08-15.072,122.486-40.267
		l136.264,136.265l45.25-45.25C511.999,466.746,375.733,330.481,375.733,330.481 M208,351.999c-79.406,0-144-64.593-144-144
		C64,128.593,128.593,64,208,64c79.406,0,144,64.593,144,143.999C351.999,287.406,287.405,351.999,208,351.999"/>
</svg>
